id,name,model_id:id,group_id:id,perm_read,perm_write,perm_create,perm_unlink
l10n_cl_point_of_sale_invoice_refund_manager,l10n_cl_point_of_sale_invoice_refund_manager,model_l10n_cl_point_of_sale_invoice_refund,account.group_account_manager,1,1,1,1

